   ______
  |  ____|
  | |__      ___      _ __     _   _     _ __ ___
  |  __|    / _ \    | '__|   | | | |   | '_ ` _ \
  | |      | (_) |   | |      | |_| |   | | | | | |
  |_|       \___/    |_|       \__,_|   |_| |_| |_|


         tttt          hhhhhhh                                 FFFFFFFFFFFFFFFFFFFFFF                           tttt          hhhhhhh
      ttt:::t          h:::::h                                 F::::::::::::::::::::F                        ttt:::t          h:::::h
      t:::::t          h:::::h                                 F::::::::::::::::::::F                        t:::::t          h:::::h
      t:::::t          h:::::h                                 FF::::::FFFFFFFFF::::F                        t:::::t          h:::::h
ttttttt:::::ttttttt     h::::h hhhhh           eeeeeeeeeeee      F:::::F       FFFFFF  aaaaaaaaaaaaa   ttttttt:::::ttttttt     h::::h hhhhh           eeeeeeeeeeee    rrrrr   rrrrrrrrr       ssssssssss
t:::::::::::::::::t     h::::hh:::::hhh      ee::::::::::::ee    F:::::F               a::::::::::::a  t:::::::::::::::::t     h::::hh:::::hhh      ee::::::::::::ee  r::::rrr:::::::::r    ss::::::::::s
t:::::::::::::::::t     h::::::::::::::hh   e::::::eeeee:::::ee  F::::::FFFFFFFFFF     aaaaaaaaa:::::a t:::::::::::::::::t     h::::::::::::::hh   e::::::eeeee:::::eer:::::::::::::::::r ss:::::::::::::s
tttttt:::::::tttttt     h:::::::hhh::::::h e::::::e     e:::::e  F:::::::::::::::F              a::::a tttttt:::::::tttttt     h:::::::hhh::::::h e::::::e     e:::::err::::::rrrrr::::::rs::::::ssss:::::s
      t:::::t           h::::::h   h::::::he:::::::eeeee::::::e  F:::::::::::::::F       aaaaaaa:::::a       t:::::t           h::::::h   h::::::he:::::::eeeee::::::e r:::::r     r:::::r s:::::s  ssssss
      t:::::t           h:::::h     h:::::he:::::::::::::::::e   F::::::FFFFFFFFFF     aa::::::::::::a       t:::::t           h:::::h     h:::::he:::::::::::::::::e  r:::::r     rrrrrrr   s::::::s
      t:::::t           h:::::h     h:::::he::::::eeeeeeeeeee    F:::::F              a::::aaaa::::::a       t:::::t           h:::::h     h:::::he::::::eeeeeeeeeee   r:::::r                  s::::::s
      t:::::t    tttttt h:::::h     h:::::he:::::::e             F:::::F             a::::a    a:::::a       t:::::t    tttttt h:::::h     h:::::he:::::::e            r:::::r            ssssss   s:::::s
      t::::::tttt:::::t h:::::h     h:::::he::::::::e          FF:::::::FF           a::::a    a:::::a       t::::::tttt:::::t h:::::h     h:::::he::::::::e           r:::::r            s:::::ssss::::::s
      tt::::::::::::::t h:::::h     h:::::h e::::::::eeeeeeee  F::::::::FF           a:::::aaaa::::::a       tt::::::::::::::t h:::::h     h:::::h e::::::::eeeeeeee   r:::::r            s::::::::::::::s
        tt:::::::::::tt h:::::h     h:::::h  ee:::::::::::::e  F::::::::FF            a::::::::::aa:::a        tt:::::::::::tt h:::::h     h:::::h  ee:::::::::::::e   r:::::r             s:::::::::::ss
          ttttttttttt   hhhhhhh     hhhhhhh    eeeeeeeeeeeeee  FFFFFFFFFFF             aaaaaaaaaa  aaaa          ttttttttttt   hhhhhhh     hhhhhhh    eeeeeeeeeeeeee   rrrrrrr              sssssssssss

